…
### II-3. Analysis of Missing Values   

위 tibble 프레임의 첫 줄을 살펴보면, "X" 열의 결측값이 91713개로, 100% 비율의 결측을 가지고 있습니다. <br>열 이름에서 유추할 수 있듯 *아무런 의미가 없는* 열이기 때문에 "X" 열은 **삭제**합니다.
```R  
data <- subset(data, select=-c(X))
```
다시 간략히 확인해보면,
```R  
naniar::miss_var_summary(data)
```
```
# A tibble: 84 × 3
   variable                      n_miss pct_miss
   <chr>                          <int>    <dbl>
 1 d1_potassium_max                9585    10.5 
 2 d1_potassium_min                9585    10.5 
 3 h1_mbp_noninvasive_max          9084     9.90
 4 h1_mbp_noninvasive_min          9084     9.90
 5 apache_4a_hospital_death_prob   7947     8.67
 6 apache_4a_icu_death_prob        7947     8.67
 7 h1_diasbp_noninvasive_max       7350     8.01
 8 h1_diasbp_noninvasive_min       7350     8.01
 9 h1_sysbp_noninvasive_max        7341     8.00
10 h1_sysbp_noninvasive_min        7341     8.00
# … with 74 more rows  
```  
…
